Functions for working with {econanalyzr} tibbles • econanalyzr
…
# Validate & normalize (reorders/coerces if needed)
df <- econanalyzr:::check_econanalyzr_df(df0)

# Peek at the result
df
#> # A tibble: 24 × 10
#>    date       date_period_text value data_element_text data_measure_text
#>    <date>     <chr>            <dbl> <chr>             <chr>            
#>  1 2024-01-01 Monthly           98.2 Quits Rate        Percent          
#>  2 2024-01-01 Monthly          100.  Quits Rate        Percent          
#>  3 2024-02-01 Monthly           98.3 Quits Rate        Percent          
#>  4 2024-02-01 Monthly          100.  Quits Rate        Percent          
#>  5 2024-03-01 Monthly           98.4 Quits Rate        Percent          
#>  6 2024-03-01 Monthly          101.  Quits Rate        Percent          
#>  7 2024-04-01 Monthly           98.6 Quits Rate        Percent          
#>  8 2024-04-01 Monthly          101.  Quits Rate        Percent          
#>  9 2024-05-01 Monthly           98.8 Quits Rate        Percent          
#> 10 2024-05-01 Monthly          101   Quits Rate        Percent          
#> # ℹ 14 more rows
#> # ℹ 5 more variables: date_measure_text <chr>, data_transform_text <chr>,
#> #   geo_entity_type_text <chr>, geo_entity_text <chr>, viz_type_text <chr>
…
# Group by geo and compute a 3-period trailing average per series
df_trailing <- df |> 
  group_by(geo_entity_text) |> 
  econ_calc_trail_avg(trail_amount = 3L)

# The result contains original rows + trailing-average rows (twice the number of rows here)
nrow(df)
#> [1] 24
nrow(df_trailing)
#> [1] 48

# Show the df_trailing data frame
df_trailing |> 
  filter(grepl("Trail", data_transform_text))
#> # A tibble: 24 × 10
#>    date       date_period_text value data_element_text data_measure_text
#>    <date>     <chr>            <dbl> <chr>             <chr>            
#>  1 2024-01-01 Monthly           NA   Quits Rate        Percent          
#>  2 2024-02-01 Monthly           NA   Quits Rate        Percent          
#>  3 2024-03-01 Monthly           98.3 Quits Rate        Percent          
#>  4 2024-04-01 Monthly           98.4 Quits Rate        Percent          
#>  5 2024-05-01 Monthly           98.6 Quits Rate        Percent          
#>  6 2024-06-01 Monthly           98.8 Quits Rate        Percent          
#>  7 2024-07-01 Monthly           98.9 Quits Rate        Percent          
#>  8 2024-08-01 Monthly           99.0 Quits Rate        Percent          
#>  9 2024-09-01 Monthly           99.2 Quits Rate        Percent          
#> 10 2024-10-01 Monthly           99.4 Quits Rate        Percent          
#> # ℹ 14 more rows
#> # ℹ 5 more variables: date_measure_text <chr>, data_transform_text <chr>,
#> #   geo_entity_type_text <chr>, geo_entity_text <chr>, viz_type_text <chr>
…
# B) Derived interval: "last 6 months" ending at the table’s latest date
filtered_open <- econ_filter_dates(
  df,
  period_type   = "months",
  period_amount = 6
)
#> Filtered to [2024-06-01, 2024-12-01] (closed interval).
filtered_open
#> # A tibble: 14 × 10
#>    date       date_period_text value data_element_text data_measure_text
#>    <date>     <chr>            <dbl> <chr>             <chr>            
#>  1 2024-12-01 Monthly           99.8 Quits Rate        Percent          
#>  2 2024-12-01 Monthly          102.  Quits Rate        Percent          
#>  3 2024-11-01 Monthly           99.6 Quits Rate        Percent          
#>  4 2024-11-01 Monthly          102.  Quits Rate        Percent          
#>  5 2024-10-01 Monthly           99.5 Quits Rate        Percent          
#>  6 2024-10-01 Monthly          102   Quits Rate        Percent          
#>  7 2024-09-01 Monthly           99.4 Quits Rate        Percent          
#>  8 2024-09-01 Monthly          102.  Quits Rate        Percent          
#>  9 2024-08-01 Monthly           99.2 Quits Rate        Percent          
#> 10 2024-08-01 Monthly          102.  Quits Rate        Percent          
#> # ℹ 4 more rows
#> # ℹ 5 more variables: date_measure_text <chr>, data_transform_text <chr>,
#> #   geo_entity_type_text <chr>, geo_entity_text <chr>, viz_type_text <chr>
…
